Shopify
…
sd(shopify$order_amount)

## [1] 41282.54

We see that the mean is 3145, while the median is 284 and standard deviation is 41282.54, which is quite large comparing to the mean. While the third quartile is at 390, the maximum is at 704000. The gap between the two numbers is huge. Those could be the reason why the calculation could gone wrong.

#check if there's any missing value in the dataset
which(is.na(shopify))

## integer(0)

#check for values larger than 3145
sample(shopify[which(shopify$order_amount > 3145),],5)

## # A tibble: 63 x 5
##    shop_id total_items order_amount payment_method created_at         
##      <dbl>       <dbl>        <dbl> <chr>          <chr>              
##  1      42        2000       704000 credit_card    2017-03-07 4:00:00 
##  2      42        2000       704000 credit_card    2017-03-04 4:00:00 
##  3      78           1        25725 credit_card    2017-03-12 5:56:57 
##  4      78           2        51450 debit          2017-03-26 17:08:19
##  5      78           2        51450 cash           2017-03-16 21:39:35
##  6      78           2        51450 cash           2017-03-09 7:23:14 
##  7      42        2000       704000 credit_card    2017-03-02 4:00:00 
##  8      78           2        51450 cash           2017-03-18 11:18:42
##  9      78           6       154350 debit          2017-03-27 22:51:43
## 10      78           1        25725 debit          2017-03-15 10:16:45
## #  with 53 more rows
…
